<svg version="1.1" xmlns="http://www.w3.org/2000/svg">
    <filter id="blur5">
        <feGaussianBlur stdDeviation="5" />
    </filter>
    <filter id="blur10">
        <feGaussianBlur stdDeviation="10" />
    </filter>
    <filter id="blur15">
        <feGaussianBlur stdDeviation="15" />
    </filter>
    <filter id="blur30">
        <feGaussianBlur stdDeviation="30" />
    </filter>
    <filter id="blur150">
        <feGaussianBlur stdDeviation="150" />
    </filter>
    <filter id='sharpBlur'>
        <feGaussianBlur stdDeviation='10'></feGaussianBlur>
        <feColorMatrix type='matrix' values='1 0 0 0 0, 0 1 0 0 0, 0 0 1 0 0, 0 0 0 9 0'></feColorMatrix>
        <feComposite in2='SourceGraphic' operator='in'></feComposite>
    </filter>
</svg> 